<?xml version="1.0" encoding="UTF-8" standalone="no"?>
<!DOCTYPE svg PUBLIC "-//W3C//DTD SVG 1.1//EN"
 "http://www.w3.org/Graphics/SVG/1.1/DTD/svg11.dtd">
<!-- Generated by graphviz version 2.40.1 (20161225.0304)
 -->
<!-- Title: %3 Pages: 1 -->
<svg width="605pt" height="423pt"
 viewBox="0.00 0.00 605.00 423.00" xmlns="http://www.w3.org/2000/svg" xmlns:xlink="http://www.w3.org/1999/xlink">
<g id="graph0" class="graph" transform="scale(1 1) rotate(0) translate(4 419)">
<title>%3</title>
<polygon fill="#ffffff" stroke="transparent" points="-4,4 -4,-419 601,-419 601,4 -4,4"/>
<!-- splash screen -->
<g id="node1" class="node">
<title>splash screen</title>
<polygon fill="none" stroke="#000000" points="333,-415 233,-415 233,-379 333,-379 333,-415"/>
<text text-anchor="middle" x="283" y="-393.3" font-family="Helvetica,sans-Serif" font-size="14.00" fill="#000000">splash screen</text>
</g>
<!-- overview of debates -->
<g id="node2" class="node">
<title>overview of debates</title>
<polygon fill="none" stroke="#000000" points="279.5,-196 142.5,-196 142.5,-160 279.5,-160 279.5,-196"/>
<text text-anchor="middle" x="211" y="-174.3" font-family="Helvetica,sans-Serif" font-size="14.00" fill="#000000">overview of debates</text>
</g>
<!-- splash screen&#45;&gt;overview of debates -->
<g id="edge1" class="edge">
<title>splash screen&#45;&gt;overview of debates</title>
<path fill="none" stroke="#000000" d="M297.9507,-378.8967C322.2479,-347.1417 364.6549,-280.2875 334,-233 326.7471,-221.8119 301.5626,-209.6815 275.855,-199.6667"/>
<polygon fill="#000000" stroke="#000000" points="276.9836,-196.3516 266.3923,-196.0784 274.5016,-202.8968 276.9836,-196.3516"/>
</g>
<!-- login -->
<g id="node3" class="node">
<title>login</title>
<polygon fill="none" stroke="#000000" points="255,-342 201,-342 201,-306 255,-306 255,-342"/>
<text text-anchor="middle" x="228" y="-320.3" font-family="Helvetica,sans-Serif" font-size="14.00" fill="#000000">login</text>
</g>
<!-- splash screen&#45;&gt;login -->
<g id="edge2" class="edge">
<title>splash screen&#45;&gt;login</title>
<path fill="none" stroke="#000000" d="M269.4045,-378.9551C262.8599,-370.2686 254.8896,-359.6898 247.696,-350.142"/>
<polygon fill="#000000" stroke="#000000" points="250.4427,-347.9711 241.6297,-342.0904 244.8518,-352.1834 250.4427,-347.9711"/>
</g>
<!-- create an account -->
<g id="node4" class="node">
<title>create an account</title>
<polygon fill="none" stroke="#000000" points="325,-269 201,-269 201,-233 325,-233 325,-269"/>
<text text-anchor="middle" x="263" y="-247.3" font-family="Helvetica,sans-Serif" font-size="14.00" fill="#000000">create an account</text>
</g>
<!-- splash screen&#45;&gt;create an account -->
<g id="edge3" class="edge">
<title>splash screen&#45;&gt;create an account</title>
<path fill="none" stroke="#000000" d="M280.5074,-378.8042C277.0941,-353.8868 270.9307,-308.8938 266.9024,-279.4877"/>
<polygon fill="#000000" stroke="#000000" points="270.3489,-278.8575 265.524,-269.4251 263.4136,-279.8076 270.3489,-278.8575"/>
</g>
<!-- view a debate -->
<g id="node5" class="node">
<title>view a debate</title>
<polygon fill="none" stroke="#000000" points="367,-109 267,-109 267,-73 367,-73 367,-109"/>
<text text-anchor="middle" x="317" y="-87.3" font-family="Helvetica,sans-Serif" font-size="14.00" fill="#000000">view a debate</text>
</g>
<!-- overview of debates&#45;&gt;view a debate -->
<g id="edge7" class="edge">
<title>overview of debates&#45;&gt;view a debate</title>
<path fill="none" stroke="#000000" d="M232.9633,-159.9735C248.5972,-147.1419 269.7942,-129.7443 286.9879,-115.6326"/>
<polygon fill="#000000" stroke="#000000" points="289.5555,-118.0531 295.0649,-109.0034 285.1145,-112.6422 289.5555,-118.0531"/>
</g>
<!-- my profile -->
<g id="node6" class="node">
<title>my profile</title>
<polygon fill="none" stroke="#000000" points="249,-109 173,-109 173,-73 249,-73 249,-109"/>
<text text-anchor="middle" x="211" y="-87.3" font-family="Helvetica,sans-Serif" font-size="14.00" fill="#000000">my profile</text>
</g>
<!-- overview of debates&#45;&gt;my profile -->
<g id="edge8" class="edge">
<title>overview of debates&#45;&gt;my profile</title>
<path fill="none" stroke="#000000" d="M211,-159.9735C211,-148.1918 211,-132.5607 211,-119.1581"/>
<polygon fill="#000000" stroke="#000000" points="214.5001,-119.0033 211,-109.0034 207.5001,-119.0034 214.5001,-119.0033"/>
</g>
<!-- start a debate -->
<g id="node9" class="node">
<title>start a debate</title>
<polygon fill="none" stroke="#000000" points="132.5,-109 33.5,-109 33.5,-73 132.5,-73 132.5,-109"/>
<text text-anchor="middle" x="83" y="-87.3" font-family="Helvetica,sans-Serif" font-size="14.00" fill="#000000">start a debate</text>
</g>
<!-- overview of debates&#45;&gt;start a debate -->
<g id="edge11" class="edge">
<title>overview of debates&#45;&gt;start a debate</title>
<path fill="none" stroke="#000000" d="M184.4783,-159.9735C165.1705,-146.8503 138.8362,-128.9512 117.8331,-114.6756"/>
<polygon fill="#000000" stroke="#000000" points="119.7257,-111.7301 109.4877,-109.0034 115.7907,-117.5194 119.7257,-111.7301"/>
</g>
<!-- login&#45;&gt;overview of debates -->
<g id="edge4" class="edge">
<title>login&#45;&gt;overview of debates</title>
<path fill="none" stroke="#000000" d="M212.0054,-305.5347C204.3409,-295.459 195.9784,-282.3424 192,-269 185.7353,-247.9899 191.4692,-223.6537 198.2318,-205.4374"/>
<polygon fill="#000000" stroke="#000000" points="201.5404,-206.5906 202.025,-196.0068 195.0461,-203.9783 201.5404,-206.5906"/>
</g>
<!-- login&#45;&gt;create an account -->
<g id="edge5" class="edge">
<title>login&#45;&gt;create an account</title>
<path fill="none" stroke="#000000" d="M236.6517,-305.9551C240.6481,-297.6196 245.4801,-287.5416 249.909,-278.3042"/>
<polygon fill="#000000" stroke="#000000" points="253.1592,-279.6207 254.3265,-269.0904 246.8472,-276.5944 253.1592,-279.6207"/>
</g>
<!-- create an account&#45;&gt;overview of debates -->
<g id="edge6" class="edge">
<title>create an account&#45;&gt;overview of debates</title>
<path fill="none" stroke="#000000" d="M250.1461,-232.9551C244.021,-224.3564 236.575,-213.9034 229.828,-204.4316"/>
<polygon fill="#000000" stroke="#000000" points="232.5389,-202.2046 223.8863,-196.0904 226.8374,-206.2659 232.5389,-202.2046"/>
</g>
<!-- create an account&#45;&gt;view a debate -->
<g id="edge15" class="edge">
<title>create an account&#45;&gt;view a debate</title>
<path fill="none" stroke="#000000" d="M272.6381,-232.7723C277.9519,-222.2296 284.3867,-208.5952 289,-196 298.3254,-170.5398 306.005,-140.5734 310.9476,-119.1847"/>
<polygon fill="#000000" stroke="#000000" points="314.4268,-119.6665 313.2132,-109.1414 307.5984,-118.1261 314.4268,-119.6665"/>
<text text-anchor="middle" x="370.5" y="-174.3" font-family="Helvetica,sans-Serif" font-size="14.00" fill="#000000"> when arriving via a link</text>
</g>
<!-- add an argument -->
<g id="node7" class="node">
<title>add an argument</title>
<polygon fill="none" stroke="#000000" points="480.5,-36 361.5,-36 361.5,0 480.5,0 480.5,-36"/>
<text text-anchor="middle" x="421" y="-14.3" font-family="Helvetica,sans-Serif" font-size="14.00" fill="#000000">add an argument</text>
</g>
<!-- view a debate&#45;&gt;add an argument -->
<g id="edge9" class="edge">
<title>view a debate&#45;&gt;add an argument</title>
<path fill="none" stroke="#000000" d="M342.7079,-72.9551C356.083,-63.5667 372.6075,-51.9678 387.0232,-41.8491"/>
<polygon fill="#000000" stroke="#000000" points="389.0533,-44.7003 395.2274,-36.0904 385.0317,-38.9709 389.0533,-44.7003"/>
</g>
<!-- start a sub&#45;debate -->
<g id="node8" class="node">
<title>start a sub&#45;debate</title>
<polygon fill="none" stroke="#000000" points="343.5,-36 218.5,-36 218.5,0 343.5,0 343.5,-36"/>
<text text-anchor="middle" x="281" y="-14.3" font-family="Helvetica,sans-Serif" font-size="14.00" fill="#000000">start a sub&#45;debate</text>
</g>
<!-- view a debate&#45;&gt;start a sub&#45;debate -->
<g id="edge10" class="edge">
<title>view a debate&#45;&gt;start a sub&#45;debate</title>
<path fill="none" stroke="#000000" d="M308.1011,-72.9551C303.9905,-64.6196 299.0205,-54.5416 294.4651,-45.3042"/>
<polygon fill="#000000" stroke="#000000" points="297.4833,-43.511 289.9213,-36.0904 291.2052,-46.6071 297.4833,-43.511"/>
</g>
<!-- invite participants -->
<g id="node11" class="node">
<title>invite participants</title>
<polygon fill="none" stroke="#000000" points="143.5,-36 22.5,-36 22.5,0 143.5,0 143.5,-36"/>
<text text-anchor="middle" x="83" y="-14.3" font-family="Helvetica,sans-Serif" font-size="14.00" fill="#000000">invite participants</text>
</g>
<!-- start a debate&#45;&gt;invite participants -->
<g id="edge13" class="edge">
<title>start a debate&#45;&gt;invite participants</title>
<path fill="none" stroke="#000000" d="M83,-72.9551C83,-64.8828 83,-55.1764 83,-46.1817"/>
<polygon fill="#000000" stroke="#000000" points="86.5001,-46.0903 83,-36.0904 79.5001,-46.0904 86.5001,-46.0903"/>
</g>
<!-- view an argument -->
<g id="node10" class="node">
<title>view an argument</title>
<polygon fill="none" stroke="#000000" points="124,-196 0,-196 0,-160 124,-160 124,-196"/>
<text text-anchor="middle" x="62" y="-174.3" font-family="Helvetica,sans-Serif" font-size="14.00" fill="#000000">view an argument</text>
</g>
<!-- view an argument&#45;&gt;start a debate -->
<g id="edge12" class="edge">
<title>view an argument&#45;&gt;start a debate</title>
<path fill="none" stroke="#000000" d="M66.3512,-159.9735C69.2232,-148.0751 73.0429,-132.2508 76.2992,-118.7606"/>
<polygon fill="#000000" stroke="#000000" points="79.7102,-119.5455 78.6544,-109.0034 72.9056,-117.9029 79.7102,-119.5455"/>
</g>
<!-- quick introduction -->
<g id="node12" class="node">
<title>quick introduction</title>
<polygon fill="none" stroke="#000000" points="597,-196 475,-196 475,-160 597,-160 597,-196"/>
<text text-anchor="middle" x="536" y="-174.3" font-family="Helvetica,sans-Serif" font-size="14.00" fill="#000000">quick introduction</text>
</g>
<!-- quick introduction&#45;&gt;view a debate -->
<g id="edge14" class="edge">
<title>quick introduction&#45;&gt;view a debate</title>
<path fill="none" stroke="#000000" d="M490.6231,-159.9735C456.1205,-146.267 408.5035,-127.3507 371.8618,-112.7944"/>
<polygon fill="#000000" stroke="#000000" points="372.9045,-109.4426 362.3188,-109.0034 370.3201,-115.9481 372.9045,-109.4426"/>
<text text-anchor="middle" x="507.5" y="-130.8" font-family="Helvetica,sans-Serif" font-size="14.00" fill="#000000"> when invited via email</text>
</g>
</g>
</svg>
