<?xml version="1.0" encoding="UTF-8" standalone="no"?>
<!-- Created with Inkscape (http://www.inkscape.org/) -->

<svg
   xmlns:dc="http://purl.org/dc/elements/1.1/"
   xmlns:cc="http://creativecommons.org/ns#"
   xmlns:rdf="http://www.w3.org/1999/02/22-rdf-syntax-ns#"
   xmlns:svg="http://www.w3.org/2000/svg"
   xmlns="http://www.w3.org/2000/svg"
   xmlns:xlink="http://www.w3.org/1999/xlink"
   xmlns:sodipodi="http://sodipodi.sourceforge.net/DTD/sodipodi-0.dtd"
   xmlns:inkscape="http://www.inkscape.org/namespaces/inkscape"
   width="10mm"
   height="10mm"
   viewBox="0 0 10 10"
   version="1.1"
   id="svg8"
   inkscape:version="0.92.3 (2405546, 2018-03-11)"
   sodipodi:docname="logo-small.dist.svg">
  <defs
     id="defs2">
    <linearGradient
       inkscape:collect="always"
       id="linearGradient856">
      <stop
         style="stop-color:#00c85d;stop-opacity:1"
         offset="0"
         id="stop852" />
      <stop
         style="stop-color:#7ec6cc;stop-opacity:1"
         offset="1"
         id="stop854" />
    </linearGradient>
    <linearGradient
       inkscape:collect="always"
       xlink:href="#linearGradient856"
       id="linearGradient817"
       x1="77.660538"
       y1="41.877789"
       x2="-5.2678909"
       y2="-0.043544054"
       gradientUnits="userSpaceOnUse" />
  </defs>
  <sodipodi:namedview
     id="base"
     pagecolor="#ffffff"
     bordercolor="#666666"
     borderopacity="1.0"
     inkscape:pageopacity="0.0"
     inkscape:pageshadow="2"
     inkscape:zoom="3.959798"
     inkscape:cx="42.973533"
     inkscape:cy="38.085405"
     inkscape:document-units="mm"
     inkscape:current-layer="layer1"
     showgrid="false"
     inkscape:window-width="1864"
     inkscape:window-height="1020"
     inkscape:window-x="56"
     inkscape:window-y="28"
     inkscape:window-maximized="1" />
  <metadata
     id="metadata5">
    <rdf:RDF>
      <cc:Work
         rdf:about="">
        <dc:format>image/svg+xml</dc:format>
        <dc:type
           rdf:resource="http://purl.org/dc/dcmitype/StillImage" />
        <dc:title></dc:title>
      </cc:Work>
    </rdf:RDF>
  </metadata>
  <g
     inkscape:label="Ebene 1"
     inkscape:groupmode="layer"
     id="layer1"
     transform="translate(0,-287)">
    <path
       style="fill:url(#linearGradient817);fill-opacity:1;fill-rule:evenodd;stroke:none;stroke-width:0.04168089px;stroke-linecap:butt;stroke-linejoin:miter;stroke-opacity:1"
       d="M 23.951172 2.1738281 C 22.439694 2.2914039 20.652527 4.1093684 18.902344 4.0742188 C 16.568765 4.1218408 14.172603 0.87671607 12.447266 2.7558594 C 10.60921 4.6830054 15.200712 11.379319 17.583984 14.689453 A 4.3310796 4.3310796 0 0 0 15.417969 16.248047 C 13.011789 12.964696 8.0403934 6.497418 5.6347656 7.6523438 C 3.3143846 8.7125012 5.6602057 11.994356 4.8945312 14.199219 C 4.2179769 16.433109 0.39046881 17.710072 1.6445312 19.931641 C 2.9086559 22.274033 10.689446 19.984897 14.576172 18.738281 A 4.3310796 4.3310796 0 0 0 14.572266 18.810547 A 4.3310796 4.3310796 0 0 0 15.390625 21.333984 C 11.522417 22.608673 3.8463559 25.335157 4.2011719 27.978516 C 4.4924336 30.512916 8.3388521 29.295541 10.199219 30.705078 C 12.114665 32.038836 12.146095 36.072561 14.646484 35.566406 C 17.263975 35.087893 17.489921 26.986546 17.507812 22.904297 A 4.3310796 4.3310796 0 0 0 18.902344 23.140625 A 4.3310796 4.3310796 0 0 0 20.283203 22.910156 C 20.300795 26.989194 20.522974 35.103393 23.142578 35.582031 C 25.642436 36.088229 25.675609 32.055365 27.589844 30.720703 C 27.589844 30.720703 27.591797 30.720703 27.591797 30.720703 C 29.452658 29.312732 33.296696 30.527718 33.587891 27.994141 C 33.942508 25.352276 26.276541 22.627159 22.40625 21.351562 A 4.3310796 4.3310796 0 0 0 23.234375 18.810547 A 4.3310796 4.3310796 0 0 0 23.230469 18.724609 C 27.120423 19.969494 34.887303 22.256412 36.150391 19.916016 C 37.404454 17.694409 33.576945 16.417446 32.900391 14.183594 C 32.134712 11.978693 34.480536 8.6949609 32.160156 7.6347656 C 29.754282 6.4797604 24.784795 12.949387 22.378906 16.232422 A 4.3310796 4.3310796 0 0 0 20.224609 14.6875 C 22.608276 11.376693 27.197078 4.6826355 25.359375 2.7558594 C 24.928041 2.2860735 24.454998 2.1346362 23.951172 2.1738281 z "
       transform="matrix(0.26458333,0,0,0.26458333,0,287)"
       id="use4751" />
  </g>
</svg>
